<svg width="26" height="34" viewBox="0 0 26 34" fill="none" xmlns="http://www.w3.org/2000/svg">
<rect x="0.25" y="0.25" width="25.5" height="33.5" rx="0.75" fill="#48B165" stroke="#656565" stroke-width="0.5" stroke-linecap="round" stroke-linejoin="round"/>
<path d="M19.9465 16.0976C19.8275 15.9524 19.6059 15.9254 19.4515 16.0373C19.297 16.1493 19.2684 16.3578 19.3874 16.5031C19.7502 16.9459 19.942 17.4764 19.942 18.0371C19.942 18.2205 20.1 18.3692 20.295 18.3692C20.4899 18.3692 20.6479 18.2205 20.6479 18.0371C20.6479 17.3284 20.4053 16.6577 19.9465 16.0976Z" fill="white"/>
<path d="M18.8245 12.6296C19.5411 12.1746 20.0133 11.4036 20.0133 10.5308C20.0133 9.13537 18.8067 8.00007 17.3235 8.00007C15.8404 8.00007 14.6337 9.13537 14.6337 10.5308C14.6337 11.4032 15.1054 12.1739 15.8215 12.629C15.2999 12.7952 14.8115 13.0482 14.3778 13.3799C14.011 13.0479 13.5186 12.8567 13 12.8567C12.4816 12.8567 11.9892 13.048 11.6225 13.3799C11.1887 13.0482 10.7003 12.7952 10.1785 12.629C10.8946 12.1738 11.3663 11.4032 11.3663 10.5308C11.3663 9.13531 10.1597 8 8.67652 8C7.19356 8 5.9871 9.13531 5.9871 10.5308C5.9871 11.4035 6.45914 12.1745 7.17563 12.6295C5.33386 13.2184 4.00446 14.8598 4.00049 16.7885C4.00039 16.7915 4 16.7942 4 16.7971C4 17.307 4.3079 18.0594 5.77483 18.7488C6.82009 19.24 8.25651 19.6092 9.92882 19.8165C10.9097 19.9382 11.9431 20 13 20C14.0573 20 15.0907 19.9383 16.0716 19.8165C17.7437 19.6092 19.18 19.24 20.2253 18.7488C21.6921 18.0594 22 17.307 22 16.7971C22 14.8648 20.6692 13.2193 18.8245 12.6296ZM15.3396 10.5308C15.3396 9.50158 16.2296 8.66424 17.3235 8.66424C18.4174 8.66424 19.3074 9.50161 19.3074 10.5308C19.3074 11.5599 18.4174 12.3971 17.3235 12.3971C16.2296 12.3971 15.3396 11.5599 15.3396 10.5308ZM11.9469 14.0397C12.1867 13.7148 12.5803 13.5209 13 13.5209C13.4199 13.5209 13.8136 13.7148 14.0534 14.0397C14.0534 14.0398 14.0535 14.0398 14.0535 14.0399C14.2032 14.2423 14.2822 14.48 14.2822 14.7273C14.2822 15.3925 13.707 15.9337 13 15.9337C12.2931 15.9337 11.7181 15.3925 11.7181 14.7273C11.7181 14.4796 11.7971 14.242 11.9469 14.0397ZM6.69293 10.5308C6.69293 9.50158 7.58274 8.66424 8.67645 8.66424C9.77037 8.66424 10.6603 9.50161 10.6603 10.5308C10.6603 11.5599 9.77034 12.3971 8.67645 12.3971C7.58274 12.3971 6.69293 11.5599 6.69293 10.5308ZM9.62215 19.1047C8.19885 18.9008 6.98385 18.5745 6.09029 18.1546C5.20013 17.7363 4.70893 17.2558 4.70608 16.8011C4.70608 16.7998 4.70629 16.7985 4.70629 16.7972C4.70625 14.7372 6.4873 13.0613 8.67648 13.0613C9.60784 13.0613 10.4964 13.364 11.2075 13.9185C11.0793 14.1692 11.0123 14.444 11.0123 14.7273C11.0123 15.3054 11.2925 15.8231 11.7317 16.1665C10.4981 16.6384 9.62535 17.7772 9.62215 19.1047ZM15.6725 19.1936C14.814 19.2878 13.9167 19.3359 13 19.3359C12.0835 19.3359 11.1864 19.2878 10.3279 19.1936V19.1121C10.3279 17.7257 11.5266 16.5979 13 16.5979C14.4736 16.5979 15.6725 17.7257 15.6725 19.1121V19.1936ZM19.9098 18.1546C19.0163 18.5745 17.8015 18.9007 16.3783 19.1047C16.3751 17.7772 15.5023 16.6384 14.2685 16.1664C14.7079 15.823 14.9882 15.3054 14.9882 14.7273C14.9882 14.4443 14.9212 14.1694 14.7928 13.9185C15.5036 13.3639 16.3921 13.0612 17.3236 13.0612C19.5129 13.0612 21.2941 14.7372 21.2941 16.7971C21.2941 17.253 20.8025 17.7351 19.9098 18.1546Z" fill="white"/>
<path d="M19.0001 15C18.5459 15 18.5451 15.6641 19.0001 15.6641C19.4543 15.6641 19.4551 15 19.0001 15Z" fill="white"/>
<line x1="5.5" y1="24.5" x2="20.5" y2="24.5" stroke="white" stroke-linecap="round"/>
<line x1="5.5" y1="27.5" x2="20.5" y2="27.5" stroke="white" stroke-linecap="round"/>
</svg>
