<svg width="34" height="30" viewBox="0 0 34 30" fill="none" xmlns="http://www.w3.org/2000/svg">
<path d="M1 19.9021V5.88867H33V19.9021L19 21.8629C19 21.8629 19.408 20.4943 18.5 20.0001C17.814 19.6268 16.186 19.6268 15.5 20.0001C14.592 20.4943 15 21.8629 15 21.8629L1 19.9021Z" fill="#51B148"/>
<path d="M2 29.2156V20.8823V20.3921L15 21.8627L15.5 24.8039H18.5L19 21.8627L32 20.8823V29.2156H2Z" fill="#48B165"/>
<path d="M9.5 5.5H11.5V2.5H22.5V5.5H24.5V2L22.5 0.5H12.5L10 1.5L9.5 5.5Z" fill="#646464"/>
<path d="M32.3 5H24.9333V2.77778C24.9314 1.2443 23.6641 0.00189887 22.1 0H11.9C10.3359 0.00189887 9.0686 1.2443 9.06667 2.77778V5H1.7C0.761182 5 0 5.74626 0 6.66667V19.0332C0.003597 19.738 0.456543 20.3649 1.13333 20.6017V28.3333C1.13333 29.2537 1.89451 30 2.83333 30H31.1667C32.1055 30 32.8667 29.2537 32.8667 28.3333V20.6022C33.5435 20.3651 33.9967 19.738 34 19.0332V6.66667C34 5.74626 33.2388 5 32.3 5ZM10 2.77778C10 1.85737 10.9612 1 11.9 1H22.1C23.0388 1 24 1.85737 24 2.77778V5H22.6667V2.77778C22.6667 2.47097 22.4129 2.22222 22.1 2.22222H11.9C11.5871 2.22222 11.3333 2.47097 11.3333 2.77778V5H10V2.77778ZM22 5H12V3H22V5ZM32 28.5C32 28.8068 31.7463 29.0556 31.4333 29.0556H2.56667C2.25373 29.0556 2 28.8068 2 28.5V20.8001L14.7333 22.4783V23.8889C14.7333 24.8093 15.4945 25.2092 16.4333 25.2092H17.5667C18.5055 25.2092 19.2667 24.8093 19.2667 23.8889V22.4783L32 20.8212V28.5ZM18.5 23.8889C18.5 24.1957 18 24.5 17.5667 24.5H16.4333C16 24.5 15.5 24.1957 15.5 23.8889V20.5556C15.5 20.2488 16 20 16.4333 20H17.5667C18 20 18.5 20.2488 18.5 20.5556V23.8889ZM33 19.0332C33.0003 19.3102 32.6591 19.5451 32.3794 19.5839L32.2222 19.605L19.2667 21.3566V20.5556C19.2667 19.6351 18.5055 19.2017 17.5667 19.2017H16.4333C15.4945 19.2017 14.7333 19.6351 14.7333 20.5556V21.3566L1.62114 19.5839C1.34141 19.5454 0.999723 19.3104 1 19.0332V6.66667C1 6.35986 1.38706 6 1.7 6H32.3C32.6129 6 33 6.35986 33 6.66667V19.0332Z" fill="#646464"/>
</svg>
