<svg width="24" height="15" viewBox="0 0 24 15" fill="none" xmlns="http://www.w3.org/2000/svg">
<path d="M12 0C7.46939 0 3.28163 2.69388 0 7.2C3.28163 11.7061 7.46939 14.4 12 14.4C16.5306 14.4 20.7184 11.7061 24 7.2C20.7184 2.69388 16.5306 0 12 0ZM12 12C9.3551 12 7.2 9.8449 7.2 7.2C7.2 4.5551 9.3551 2.4 12 2.4C14.6449 2.4 16.8 4.5551 16.8 7.2C16.8 9.8449 14.6449 12 12 12Z" fill="#8E9194"/>
<path d="M12.0001 9.60005C13.3256 9.60005 14.4001 8.52553 14.4001 7.20005C14.4001 5.87457 13.3256 4.80005 12.0001 4.80005C10.6746 4.80005 9.6001 5.87457 9.6001 7.20005C9.6001 8.52553 10.6746 9.60005 12.0001 9.60005Z" fill="#8E9194"/>
</svg>
